chapter6.utf8.md
…
## Observations: 33
## Variables: 4
## $ Group <fct> 1, 1, 1, 1, 1, 1, 1, 1, 1, 1, 1, 2, 2, 2, 2, 2, 2, 2, 2,...
## $ Time  <int> 1, 8, 15, 22, 29, 36, 43, 44, 50, 57, 64, 1, 8, 15, 22, ...
## $ mean  <dbl> 250.625, 255.000, 254.375, 261.875, 264.625, 265.000, 26...
## $ se    <dbl> 4.589478, 3.947710, 3.460116, 4.100800, 3.333956, 3.5529...

RATSS

## # A tibble: 33 x 4
##    Group  Time  mean    se
##    <fct> <int> <dbl> <dbl>
##  1 1         1  251.  4.59
##  2 1         8  255   3.95
##  3 1        15  254.  3.46
##  4 1        22  262.  4.10
##  5 1        29  265.  3.33
##  6 1        36  265   3.55
##  7 1        43  267.  3.30
##  8 1        44  267.  3.07
##  9 1        50  270.  4.39
## 10 1        57  272.  3.24
## # ... with 23 more rows
…
