IODS course project
…
Cross-tabulations.

Lets now focus on the cross-tabulations for the specific interest variables on which hypotheses were posed:

Go out and Alcohol use.

## # A tibble: 38 x 4
## # Groups:   goout [5]
##    goout alc_use count mean_grade
##    <int>   <dbl> <int>      <dbl>
##  1     1     1      14       11.1
##  2     1     1.5     3        7  
##  3     1     2       2       13.5
##  4     1     2.5     2       12  
##  5     1     3.5     1       10  
##  6     2     1      49       12.6
##  7     2     1.5    21       12.1
##  8     2     2      14       10.3
##  9     2     2.5     8       12.4
## 10     2     3       4       10.8
## # ... with 28 more rows

Free time and Alcohol use.

## # A tibble: 37 x 4
## # Groups:   freetime [5]
##    freetime alc_use count mean_grade
##       <int>   <dbl> <int>      <dbl>
##  1        1     1      10       10.3
##  2        1     1.5     1       16  
##  3        1     2       4       12.2
##  4        1     3       1       10  
##  5        1     4       1        8  
##  6        2     1      18       13.3
##  7        2     1.5    24       12.9
##  8        2     2       7       10.3
##  9        2     2.5     8       11.8
## 10        2     3       6       10.7
## # ... with 27 more rows

Study time and Alcohol use.

## # A tibble: 30 x 4
## # Groups:   studytime [4]
##    studytime alc_use count mean_grade
##        <int>   <dbl> <int>      <dbl>
##  1         1     1      21      12.2 
##  2         1     1.5    20      10   
##  3         1     2      17      10.1 
##  4         1     2.5    10      11.5 
##  5         1     3      12      10.1 
##  6         1     3.5    11       9.09
##  7         1     4       4      13   
##  8         1     5       5       9.6 
##  9         2     1      72      11.7 
## 10         2     1.5    35      12.1 
## # ... with 20 more rows
…
